Programming for Business Analytics - Final Project
…
## # A tibble: 2 x 2
## # Groups:   AlcoholDrinking [2]
##   AlcoholDrinking      n
##             <dbl>  <int>
## 1               0 298018
## 2               1  21777

heart %>%
  group_by(PhysicalHealth) %>%
  count(PhysicalHealth)

## # A tibble: 31 x 2
## # Groups:   PhysicalHealth [31]
##    PhysicalHealth      n
##             <dbl>  <int>
##  1              0 226589
##  2              1  10489
##  3              2  14880
##  4              3   8617
##  5              4   4468
##  6              5   7606
##  7              6   1270
##  8              7   4629
##  9              8    924
## 10              9    180
## # ... with 21 more rows

heart %>%
  group_by(MentalHealth) %>%
  count(MentalHealth)               

## # A tibble: 31 x 2
## # Groups:   MentalHealth [31]
##    MentalHealth      n
##           <dbl>  <int>
##  1            0 205401
##  2            1   9291
##  3            2  16495
##  4            3  10466
##  5            4   5379
##  6            5  14149
##  7            6   1510
##  8            7   5528
##  9            8   1094
## 10            9    203
## # ... with 21 more rows

heart %>%
  group_by(SleepTime) %>%
  count(SleepTime)

## # A tibble: 24 x 2
## # Groups:   SleepTime [24]
##    SleepTime     n
##        <dbl> <int>
##  1         1   551
##  2         2   788
##  3         3  1992
##  4         4  7750
##  5         5 19184
##  6         6 66721
##  7         7 97751
##  8         8 97602
##  9         9 16041
## 10        10  7796
## # ... with 14 more rows
…
